%YAML 1.1
%TAG !u! tag:unity3d.com,2011:
--- !u!21 &2100000
Material:
  serializedVersion: 6
  m_ObjectHideFlags: 0
  m_CorrespondingSourceObject: {fileID: 0}
  m_PrefabInstance: {fileID: 0}
  m_PrefabAsset: {fileID: 0}
  m_Name: Msh_Fire
  m_Shader: {fileID: -6465566751694194690, guid: 67ae92be1a5977944a597fec3f808c63,
    type: 3}
  m_ShaderKeywords: 
  m_LightmapFlags: 4
  m_EnableInstancingVariants: 0
  m_DoubleSidedGI: 0
  m_CustomRenderQueue: -1
  stringTagMap:
    MotionVector: User
  disabledShaderPasses:
  - MOTIONVECTORS
  m_SavedProperties:
    serializedVersion: 3
    m_TexEnvs: []
    m_Floats:
    - Vector1_6EB4E5A6: 2.89
    m_Colors:
    - Color_1563F110: {r: 0.5943396, g: 0.5943396, b: 0.5943396, a: 0}
    - Color_B0CD85A: {r: 0.1509434, g: 0.1509434, b: 0.1509434, a: 0}
